{
  "id": "apcs",
  "title": "Action Point Combat System",
  "description": "A detailed Action Point system for combat in the item-based game systems created by James Huddleston.",
  "authors": [
    {
      "name": "James Huddleston",
      "discord": "jameshuddleston",
      "email": "jbhuddleston@gmail.com",
      "url": "https://www.youtube.com/channel/UC-WeR6LCq_UuPpldldbGDvw",
      "flags": {}
    }
  ],
  "version": "12.007",
  "compatibility": {
    "minimum": "12",
    "verified": "12",
    "maximum": "12"
  },
  "relationships": {
    "systems": [
      {
        "id": "grpga",
        "type": "system",
        "compatibility": {}
      },
      {
        "id": "vsd",
        "type": "system",
        "compatibility": {}
      }
    ]
  },
  "esmodules": [
    "scripts/apcs_init.js",
    "scripts/combat.js"
  ],
  "styles": [
    "styles/apcs.css"
  ],
  "languages": [
    {
      "lang": "en",
      "name": "English",
      "path": "lang/en.json"
    }
  ],
  "packs": [
    {
      "name": "apcs-items-vsd",
      "label": "APCS Items VsD",
      "path": "packs/apcs-items-vsd",
      "type": "Item",
      "ownership": {
        "PLAYER": "OBSERVER",
        "ASSISTANT": "OWNER"
      },
      "system": "vsd",
      "flags": {}
    },
    {
      "name": "apcs-docs",
      "label": "APCS Docs",
      "path": "packs/apcs-docs",
      "type": "JournalEntry",
      "ownership": {
        "PLAYER": "OBSERVER",
        "ASSISTANT": "OWNER"
      },
      "system": "",
      "flags": {}
    },
    {
      "name": "apcs-items-grpga",
      "label": "APCS Items GRPGA",
      "path": "packs/apcs-items-grpga",
      "type": "Item",
      "ownership": {
        "PLAYER": "OBSERVER",
        "ASSISTANT": "OWNER"
      },
      "system": "grpga",
      "flags": {}
    },
    {
      "name": "apcs-macros",
      "label": "APCS Macros",
      "path": "packs/apcs-macros",
      "type": "Macro",
      "ownership": {
        "PLAYER": "OBSERVER",
        "ASSISTANT": "OWNER"
      },
      "system": "",
      "flags": {}
    },
    {
      "name": "apcs-rolltables",
      "label": "APCS RollTables",
      "path": "packs/apcs-rolltables",
      "type": "RollTable",
      "ownership": {
        "PLAYER": "OBSERVER",
        "ASSISTANT": "OWNER"
      },
      "system": "",
      "flags": {}
    }
  ],
  "url": "https://www.youtube.com/channel/UC-WeR6LCq_UuPpldldbGDvw",
  "manifest": "https://gitlab.com/jbhuddleston/apcs/-/raw/main/module.json",
  "download": "https://gitlab.com/jbhuddleston/apcs/-/archive/main/apcs-main.zip"
}
